<svg id="parent" xmlns="http://www.w3.org/2000/svg" width="21.515" height="31.942" viewBox="0 0 21.515 31.942">
  <path id="Path_51" data-name="Path 51" d="M73.488,167.655v6.426a1.4,1.4,0,1,0,2.806,0v-6.95a16.982,16.982,0,0,1-2.195-.166A1.251,1.251,0,0,1,73.488,167.655Z" transform="translate(-63.179 -143.541)" fill="#fff"/>
  <path id="Path_52" data-name="Path 52" d="M96.822,173.466a1.4,1.4,0,0,0,2.806,0V166.25a16.528,16.528,0,0,1-2.806.266Z" transform="translate(-83.239 -142.927)" fill="#fff"/>
  <path id="Path_53" data-name="Path 53" d="M75.988,5.953a3.016,3.016,0,1,0-2.253-3.621A3.015,3.015,0,0,0,75.988,5.953Z" transform="translate(-63.323 0)" fill="#fff"/>
  <path id="Path_54" data-name="Path 54" d="M66.289,58.845a.912.912,0,1,0,1.808-.238c-.647-4.9-1.977-7.592-3.26-9.087a4.739,4.739,0,0,0-2.627-1.734,8.908,8.908,0,0,0-4.542,0,4.739,4.739,0,0,0-2.627,1.734,9.063,9.063,0,0,0-.848,1.176,3.156,3.156,0,0,1,.858,2.165c0,.056,0,.111-.006.166a9.266,9.266,0,0,1,1.227-2.133l-1.093,5.372a3.565,3.565,0,0,1,1.047.991c.92,1.274,1.369,3.206,1.371,5.9,0,.224,0,.453-.01.69,0,0,0,0,0,0a17.172,17.172,0,0,0,2.352.157,13.073,13.073,0,0,0,6-1.221l.075-.042L63.606,50.9l.033.041C64.582,52.141,65.712,54.465,66.289,58.845Z" transform="translate(-46.59 -40.829)" fill="#fff"/>
  <path id="Path_55" data-name="Path 55" d="M16.689,171.5a1.256,1.256,0,0,0,2.511,0V165.9h.881V171.5a1.255,1.255,0,1,0,2.511,0v-7.666h-5.9Z" transform="translate(-14.348 -140.85)" fill="#fff"/>
  <path id="Path_56" data-name="Path 56" d="M10.586,117.223c0-2.99-.58-4.673-1.292-5.659a2.667,2.667,0,0,0-1.7-1.175.783.783,0,0,0-.139-.013h-.8a1.547,1.547,0,0,1-1.362.734,1.547,1.547,0,0,1-1.362-.734h-.8a.788.788,0,0,0-.139.013,2.669,2.669,0,0,0-1.7,1.175C.58,112.55,0,114.232,0,117.223q0,.328.01.68a.841.841,0,0,0,.841.817H.876a.842.842,0,0,0,.817-.866q-.009-.327-.009-.632a10.055,10.055,0,0,1,.658-4.125v4.216h5.9V113.1a10.05,10.05,0,0,1,.658,4.125c0,.2,0,.414-.009.633a.842.842,0,0,0,.819.864h.023a.841.841,0,0,0,.841-.819Q10.586,117.552,10.586,117.223Z" transform="translate(0 -94.891)" fill="#fff"/>
  <path id="Path_57" data-name="Path 57" d="M22.278,71.3a2.73,2.73,0,1,0-1.379.374A2.743,2.743,0,0,0,22.278,71.3Z" transform="translate(-15.606 -56.899)" fill="#fff"/>
</svg>
