<svg xmlns="http://www.w3.org/2000/svg" width="34.916" height="19.454" viewBox="0 0 34.916 19.454">
  <g id="staff" transform="translate(-2.992 -22.548)">
    <path id="Path_61" data-name="Path 61" d="M35.383,50.437a8.352,8.352,0,0,0-8.343,8.342.567.567,0,0,0,.567.567H43.158a.567.567,0,0,0,.567-.567A8.352,8.352,0,0,0,35.383,50.437ZM28.2,58.212a7.208,7.208,0,0,1,14.372,0Z" transform="translate(-14.956 -17.345)" fill="#fff"/>
    <path id="Path_62" data-name="Path 62" d="M40.69,32.343a4.9,4.9,0,1,0-4.9-4.9A4.9,4.9,0,0,0,40.69,32.343Zm0-8.661a3.763,3.763,0,1,1-3.763,3.763A3.768,3.768,0,0,1,40.69,23.682Z" transform="translate(-20.399 0)" fill="#fff"/>
    <path id="Path_63" data-name="Path 63" d="M9.339,56.848a5.217,5.217,0,0,1,2.643.718.567.567,0,1,0,.575-.978,6.35,6.35,0,0,0-9.565,5.473.567.567,0,0,0,.567.567h7.188a.567.567,0,1,0,0-1.134H4.157A5.221,5.221,0,0,1,9.339,56.848Z" transform="translate(0 -20.626)" fill="#fff"/>
    <path id="Path_64" data-name="Path 64" d="M13.286,40.863A3.786,3.786,0,1,0,9.5,37.077,3.791,3.791,0,0,0,13.286,40.863Zm0-6.438a2.652,2.652,0,1,1-2.652,2.652A2.655,2.655,0,0,1,13.286,34.425Z" transform="translate(-4.047 -6.681)" fill="#fff"/>
    <path id="Path_65" data-name="Path 65" d="M72.8,55.714a6.356,6.356,0,0,0-3.218.874.567.567,0,0,0,.575.978,5.216,5.216,0,0,1,7.825,3.928H71.393a.567.567,0,1,0,0,1.134H78.58a.567.567,0,0,0,.567-.567A6.354,6.354,0,0,0,72.8,55.714Z" transform="translate(-41.239 -20.626)" fill="#fff"/>
    <path id="Path_66" data-name="Path 66" d="M72.592,40.863a3.786,3.786,0,1,0-3.787-3.786A3.791,3.791,0,0,0,72.592,40.863Zm0-6.438a2.652,2.652,0,1,1-2.652,2.652A2.655,2.655,0,0,1,72.592,34.425Z" transform="translate(-40.93 -6.681)" fill="#fff"/>
  </g>
</svg>
