<svg xmlns="http://www.w3.org/2000/svg" width="29.88" height="34.211" viewBox="0 0 29.88 34.211">
  <g id="location" transform="translate(-3 -2)">
    <path id="Path_30" data-name="Path 30" d="M27.8,26.8,20.4,34.19a3.482,3.482,0,0,1-4.926,0L8.083,26.8a13.94,13.94,0,1,1,19.715,0Z" transform="translate(0 0)" fill="none" stroke="#fff" stroke-linecap="round" stroke-linejoin="round" stroke-width="2"/>
    <path id="Path_31" data-name="Path 31" d="M19.455,13.227A5.227,5.227,0,1,1,14.227,8a5.227,5.227,0,0,1,5.227,5.227Z" transform="translate(3.712 3.712)" fill="none" stroke="#fff" stroke-linecap="round" stroke-linejoin="round" stroke-width="2"/>
  </g>
</svg>
