<svg xmlns="http://www.w3.org/2000/svg" width="36" height="36" viewBox="0 0 36 36">
  <path id="success-rate" d="M31.635,0,18,13.5,13.5,9,0,22.635l4.5,4.5L13.5,18,18,22.5l18-18ZM0,31.5V36H36V31.5Z" fill="#dda23f"/>
</svg>
