<svg xmlns="http://www.w3.org/2000/svg" width="28" height="28.005" viewBox="0 0 28 28.005">
  <g id="job" transform="translate(-2 -1.995)">
    <path id="Path_50" data-name="Path 50" d="M25,6H20.9a5,5,0,0,0-9.8,0H7a5,5,0,0,0-5,5v7a1,1,0,0,0,1,1H4v6a5,5,0,0,0,5,5H23a5,5,0,0,0,5-5V19h1a1,1,0,0,0,1-1V11A5,5,0,0,0,25,6ZM16,4a3,3,0,0,1,2.83,2H13.17A3,3,0,0,1,16,4ZM26,25a3,3,0,0,1-3,3H9a3,3,0,0,1-3-3V19h7.18a3,3,0,0,0,5.64,0H26ZM15,18a1,1,0,1,1,1,1A1,1,0,0,1,15,18Zm13-1H18.82a3,3,0,0,0-5.64,0H4V11A3,3,0,0,1,7,8H25a3,3,0,0,1,3,3Z" fill="#fff"/>
  </g>
</svg>
