<svg xmlns="http://www.w3.org/2000/svg" width="35.234" height="26.426" viewBox="0 0 35.234 26.426">
  <g id="Visitor-visa" transform="translate(-10 -20)">
    <path id="Path_49" data-name="Path 49" d="M45.207,24.894c-.281-1.6-2.668-2.512-5.327-2.041L20.843,26.21,13.785,20l-3.614.636,2.48,7.016L10,28.121l.255,1.446A14.991,14.991,0,0,0,21.5,32.057l2.533-.447L22.738,37.8l4.337-.765L35.6,29.571l5.3-.935C43.558,28.166,45.489,26.491,45.207,24.894Z" fill="#fff"/>
    <rect id="Rectangle_108" data-name="Rectangle 108" width="35.234" height="2.936" transform="translate(10 43.489)" fill="#fff"/>
  </g>
</svg>
